<?xml version="1.0" encoding="UTF-8"?>
<svg width="57px" height="11px" viewBox="0 0 57 11" version="1.1" xmlns="http://www.w3.org/2000/svg" xmlns:xlink="http://www.w3.org/1999/xlink">

    <g id="Page-2" stroke="none" stroke-width="1" fill="none" fill-rule="evenodd">
        <g id="12-Обратная-связь_-Сообщение" transform="translate(-382.000000, -311.000000)">
            <g id="1" transform="translate(302.000000, 171.000000)">
                <g id="Group-3" transform="translate(29.000000, 84.000000)">
                    <g id="Group-7" transform="translate(51.000000, 56.000000)">
                        <polygon id="Rectangle-Copy"  points="56.125 6 28.5 11 0.875 6 0.875 0.453373068 56.125 0.453373068"></polygon>
                        <path d="M44.9852315,7 L12.0147685,7 L28.5,9.98375231 L44.9852315,7 Z" id="Rectangle" stroke="#47ACFA" stroke-width="2"></path>
                    </g>
                </g>
            </g>
        </g>
    </g>
</svg>