<?xml version="1.0" encoding="UTF-8"?>
<svg width="20px" height="20px" viewBox="0 0 20 20" version="1.1" xmlns="http://www.w3.org/2000/svg" xmlns:xlink="http://www.w3.org/1999/xlink">
    <!-- Generator: Sketch 46.2 (44496) - http://www.bohemiancoding.com/sketch -->
    <title>Group 2</title>
    <desc>Created with Sketch.</desc>
    <defs>
        <rect id="path-1" x="0" y="0" width="20" height="20" rx="10"></rect>
    </defs>
    <g id="Page-2" stroke="none" stroke-width="1" fill="none" fill-rule="evenodd">
        <g id="10-Опросы" transform="translate(-350.000000, -699.000000)">
            <g id="1" transform="translate(270.000000, 140.000000)">
                <g transform="translate(60.000000, 529.000000)" id="Group-2">
                    <g transform="translate(20.000000, 30.000000)">
                        <g id="Rectangle-4-Copy">
                            <use fill="#FFFFFF" fill-rule="evenodd" xlink:href="#path-1"></use>
                            <rect stroke="#DADDE6" stroke-width="1" x="0.5" y="0.5" width="19" height="19" rx="9.5"></rect>
                        </g>
                        <rect id="Rectangle-4-Copy-2" fill="#47ACFA" x="5" y="5" width="10" height="10" rx="5"></rect>
                    </g>
                </g>
            </g>
        </g>
    </g>
</svg>