<?xml version="1.0" encoding="UTF-8"?>
<svg width="45px" height="27px" viewBox="0 0 45 27" version="1.1" xmlns="http://www.w3.org/2000/svg" xmlns:xlink="http://www.w3.org/1999/xlink">
    <!-- Generator: Sketch 46.2 (44496) - http://www.bohemiancoding.com/sketch -->
    <title>Fill 1</title>
    <desc>Created with Sketch.</desc>
    <defs></defs>
    <g id="Symbols" stroke="none" stroke-width="1" fill="none" fill-rule="evenodd">
        <g id="Footer" transform="translate(-833.000000, -118.000000)" fill="#9DA6AF">
            <g id="Group-9" transform="translate(833.000000, 118.000000)">
                <path d="M25.2704203,10.2662128 C25.0094203,10.3888335 24.3984203,10.2246955 23.8454203,9.69366104 C23.2944203,9.15973001 23.1314203,8.73779897 23.4184203,8.43752311 C23.8394203,8.00207484 24.5014203,8.1681438 24.8234203,8.82083346 C25.3064203,9.80179897 25.4304203,10.1899369 25.2704203,10.2662128 M22.2364203,13.3008335 C21.9244203,13.3867645 21.6054203,13.4514541 21.3514203,13.4920059 C21.1594203,13.3182128 20.9664203,13.1424886 20.7754203,12.9764197 C20.4224203,12.6655231 20.0834203,12.3633162 19.7474203,12.0398679 L19.0464203,11.3620748 C19.0234203,11.3398679 19.0204203,11.3041438 19.0404203,11.2780748 C19.0604203,11.2520059 19.0964203,11.2452472 19.1264203,11.25973 C19.5614203,11.4933852 19.9874203,11.7434541 20.4344203,11.9771093 C20.7504203,12.1451093 21.0804203,12.3102128 21.4274203,12.4608335 C21.6014203,12.5351783 21.7814203,12.6095231 21.9694203,12.6809714 C22.0644203,12.71573 22.1624203,12.7495231 22.2684203,12.7804197 C22.3894203,12.8103507 22.4574203,12.8412472 22.6744203,12.8615231 C22.7884203,12.8634541 22.8914203,12.8412472 22.9894203,12.8045576 C23.0034203,12.7987645 23.0194203,12.8026266 23.0274203,12.8132472 C23.0374203,12.8238679 23.0384203,12.8393162 23.0304203,12.8518679 C22.8844203,13.0652472 22.6144203,13.1975231 22.2364203,13.3008335 M44.1454203,0.139867939 C44.0594203,0.00179897396 43.8744203,-0.0406837847 43.7314203,0.0423506981 L43.6884203,0.0674541464 C43.3794203,0.248005871 42.8744203,0.372557595 42.4244203,0.43724725 C41.9594203,0.503867939 41.4814203,0.529936905 41.0024203,0.529936905 C40.5244203,0.529936905 40.0434203,0.503867939 39.5614203,0.460419664 C39.0844203,0.411178284 38.5754203,0.360971388 38.0674203,0.365798974 C37.0554203,0.369661043 36.0344203,0.537661043 35.0874203,0.911316215 C34.3314203,1.21352311 33.6284203,1.65186794 33.0404203,2.20317828 C32.9494203,2.19448863 32.8534203,2.21186794 32.7714203,2.26883346 C32.2974203,2.59807484 31.9894203,3.03159208 31.6554203,3.45255759 C31.3264203,3.87641966 31.0174203,4.30800587 30.7184203,4.75021277 C30.2424203,5.47048863 29.8144203,6.21779897 29.4154203,6.97766104 C28.8554203,6.30373001 28.3694203,6.58566104 28.2574203,6.60979897 C28.2574203,6.60979897 27.6584203,6.16952311 25.5984203,6.2583507 C25.0894203,6.27959208 24.6584203,6.3983507 24.2944203,6.57697139 C24.0354203,6.23807484 23.7674203,5.90497139 23.4894203,5.58248863 L22.7494203,4.77241966 C22.4944203,4.50979897 22.2654203,4.22400587 21.9124203,4.05021277 C21.8214203,4.00579897 21.7144203,4.00773001 21.6144203,4.03862656 C21.2894203,3.82138518 20.8894203,3.7383507 20.5374203,3.6823507 C20.0404203,3.61959208 19.5544203,3.61283346 19.0804203,3.60317828 C18.6044203,3.59255759 18.1504203,3.59931622 17.7094203,3.52304035 C17.2744203,3.45352311 16.8164203,3.34924725 16.4394203,3.18124725 L16.4224203,3.17255759 C16.2754203,3.1059369 16.0984203,3.16483346 16.0254203,3.30676449 C15.9524203,3.44966104 16.0114203,3.62538518 16.1614203,3.69683346 C16.6394203,3.92759208 17.1104203,4.05986794 17.6074203,4.14000587 C18.1044203,4.22110932 18.6044203,4.22979897 19.0784203,4.22110932 C19.5514203,4.21628173 20.0174203,4.20952311 20.4644203,4.2539369 C20.7754203,4.28579897 21.0734203,4.33117828 21.3464203,4.42097139 C21.3514203,4.47117828 21.3654203,4.52138518 21.3914203,4.56966104 L21.3984203,4.57931622 C21.5794203,4.89504035 21.8714203,5.11131622 22.1304203,5.35655759 L22.9104203,6.09517828 C23.1964203,6.36552311 23.4674203,6.64841966 23.7444203,6.92745415 C23.1844203,7.3783507 22.8654203,7.97117828 22.7264203,8.42497139 C22.5284203,9.07573001 22.6264203,9.58938518 22.8904203,10.0441438 C22.3634203,9.93117828 21.0574203,9.69945415 20.1754203,10.5124197 C20.1514203,10.5346266 20.1294203,10.5606955 20.1064203,10.5848335 C19.7214203,10.4612472 19.3414203,10.3222128 18.9904203,10.1368335 L18.9894203,10.1368335 L18.9004203,10.1030404 L18.8934203,10.1011093 C18.6684203,10.0209714 18.4194203,10.1320059 18.3374203,10.3482817 L18.0454203,11.1149024 C17.9914203,11.1892472 17.9754203,11.2886955 18.0174203,11.3775231 L18.0684203,11.4875921 C18.2904203,11.9664886 18.5574203,12.381661 18.8744203,12.7804197 C19.1874203,13.1753162 19.5434203,13.5470404 19.9214203,13.8772472 C20.3004203,14.2142128 20.7014203,14.5115921 21.1274203,14.7751783 C21.3364203,14.9113162 21.5564203,15.0329714 21.7724203,15.1575231 C21.9634203,15.3168335 22.2904203,15.2878679 22.5114203,15.4075921 C22.9234203,15.6943507 23.2464203,16.0815231 23.6264203,16.4020748 L24.7684203,17.4062128 C24.7724203,17.4100748 24.7764203,17.4139369 24.7814203,17.417799 C24.8714203,17.4882817 24.9864203,17.50373 25.0894203,17.47573 C25.6084203,17.8513162 26.1524203,18.1873162 26.7124203,18.509799 C26.7204203,18.5146266 26.7304203,18.5184886 26.7404203,18.5233162 C26.8894203,18.5909024 27.0694203,18.5281438 27.1404203,18.3823507 C27.2104203,18.2355921 27.1464203,18.0627645 26.9944203,17.9932472 L26.9874203,17.9903507 C26.4274203,17.7383507 25.8764203,17.4515921 25.3424203,17.1426266 C25.3374203,17.0528335 25.2974203,16.9659369 25.2204203,16.9031783 L24.1364203,16.0390404 C24.1314203,16.0235921 24.1274203,16.0091093 24.1224203,15.993661 C24.0574203,15.7590404 23.9874203,15.5273162 23.9174203,15.2946266 C23.6894203,14.5955921 22.9974203,14.2364197 22.9914203,15.1526955 C22.9374203,15.1073162 22.8824203,15.0619369 22.8324203,15.01173 L22.8094203,14.9933852 C22.6344203,14.8495231 22.5614203,14.565661 22.3794203,14.4285576 C22.4454203,14.3590404 22.5064203,14.2982128 22.5594203,14.2528335 C23.1844203,13.7227645 23.5374203,14.0761438 24.2144203,13.4591783 C24.4144203,13.2786266 24.5324203,13.1183507 24.6144203,12.9686955 C24.6824203,12.8470404 24.6484203,12.7147645 24.5404203,12.5940748 C24.1084203,12.1151783 23.7424203,11.5600059 23.5254203,10.9246955 C23.5194203,10.9092472 23.5254203,10.8918679 23.5404203,10.8831783 C23.5554203,10.8735231 23.5744203,10.8764197 23.5864203,10.8889714 C24.1614203,11.4431783 25.0094203,11.9568335 26.3804203,12.6655231 C26.5634203,12.9310404 27.1754203,13.585661 28.3744203,13.5354541 C27.8754203,12.8383507 27.5544203,12.1480059 27.6854203,11.9462128 C27.8164203,11.7453852 28.3284203,11.7675921 28.5444203,12.0022128 C28.7934203,12.2706266 29.1034203,13.1164197 29.1154203,13.4427645 C29.8694203,13.3771093 29.8394203,12.6394541 29.5424203,11.7019369 C29.7264203,11.1120059 29.8374203,10.7547645 29.8374203,10.0499369 C29.8374203,10.0335231 29.8494203,10.0209714 29.8654203,10.0171093 C29.8814203,10.0142128 29.8974203,10.0219369 29.9044203,10.0373852 C29.9804203,10.2131093 30.0504203,10.3878679 30.1084203,10.5626266 C30.1194203,10.5973852 30.1474203,10.6263507 30.1814203,10.641799 C30.2184203,10.6562817 30.2584203,10.6553162 30.2934203,10.6389024 L30.9584203,10.3318679 C30.9994203,10.4004197 31.0444203,10.4660748 31.0954203,10.5269024 C31.1734203,10.6186266 31.2734203,10.6920059 31.3884203,10.7528335 C31.2444203,11.1747645 31.1304203,11.6015231 31.0404203,12.0302128 C30.9904203,12.2889714 30.9324203,12.5467645 30.9274203,12.8132472 C30.9224203,13.0787645 30.9234203,13.3442817 31.1244203,13.63973 C31.0664203,14.0384886 30.9224203,14.4150404 30.7974203,14.7964197 L30.4194203,15.9733852 L30.4124203,15.9994541 C30.3904203,16.0940748 30.4124203,16.1838679 30.4624203,16.2582128 C30.2224203,16.7882817 29.9274203,17.2980748 29.5954203,17.7586266 L29.5894203,17.7673162 C29.5814203,17.7760059 29.5774203,17.785661 29.5724203,17.7953162 C29.4924203,17.9382128 29.5484203,18.1139369 29.6944203,18.1911783 C29.8414203,18.2674541 30.0254203,18.2143507 30.1044203,18.0704886 C30.4064203,17.529799 30.6484203,16.973661 30.8314203,16.3991783 C30.9584203,16.3702128 31.0644203,16.2775231 31.0934203,16.1471783 L31.3724203,14.9451093 C31.4634203,14.5444197 31.5334203,14.1379369 31.6984203,13.7546266 L31.7044203,13.7246955 C31.9874203,13.49973 32.0714203,13.2448335 32.1474203,12.9909024 C32.2214203,12.7360059 32.2474203,12.4733852 32.2784203,12.2107645 C32.3324203,11.6874541 32.3664203,11.1593162 32.3364203,10.6224886 L32.2354203,10.2835921 C32.2134203,10.0673162 32.1144203,9.91476449 31.9914203,9.78248863 C31.8684203,9.65021277 31.7234203,9.5343507 31.5234203,9.46579897 L31.1674203,9.34607484 C31.1304203,9.33255759 31.0884203,9.32773001 31.0464203,9.33545415 L29.8224203,9.53338518 C29.8034203,9.28524725 29.7804203,9.03517828 29.7324203,8.78800587 C29.7324203,8.78800587 29.9564203,8.25600587 29.7714203,7.62745415 C30.2894203,6.79807484 30.8294203,5.98510932 31.4104203,5.20207484 C31.7154203,4.7859369 32.0324203,4.37752311 32.3644203,3.98262656 C32.6884203,3.58579897 33.0584203,3.21600587 33.3264203,2.79504035 L33.3374203,2.77476449 C33.3764203,2.71200587 33.3964203,2.63669553 33.3924203,2.56331622 C33.9564203,2.08152311 34.6034203,1.69048863 35.3014203,1.4259369 C36.1744203,1.0841438 37.1224203,0.929661043 38.0694203,0.928695526 C38.5434203,0.925798974 39.0084203,0.974074836 39.5064203,1.02717828 C40.0024203,1.07255759 40.5004203,1.10152311 41.0024203,1.10345415 C41.5044203,1.10441966 42.0084203,1.08028173 42.5144203,1.00883346 C43.0264203,0.920971388 43.5064203,0.847592077 44.0414203,0.539592077 L44.0434203,0.537661043 C44.1864203,0.45462656 44.2314203,0.276005871 44.1454203,0.139867939 M5.99342034,23.2041438 C5.98942034,23.21573 5.98342034,23.2195921 5.97942034,23.2311783 L5.63042034,24.2623507 C5.62842034,24.2662128 5.62742034,24.2720059 5.62542034,24.2739369 C5.60942034,24.3173852 5.60442034,24.361799 5.60742034,24.4042817 C5.45542034,24.5114541 5.25842034,24.5742128 5.04242034,24.5973852 C4.70042034,24.6331093 4.31742034,24.5954541 3.98042034,24.5191783 L3.96842034,24.5172472 C3.95942034,24.5143507 3.95042034,24.5133852 3.94042034,24.5114541 C3.77442034,24.4902128 3.62242034,24.6031783 3.60142034,24.7634541 C3.57942034,24.9227645 3.69542034,25.0685576 3.86042034,25.0888335 C4.28942034,25.1438679 4.69742034,25.1467645 5.12442034,25.065661 C5.33442034,25.0212472 5.55042034,24.953661 5.74642034,24.8271783 C5.80042034,24.7933852 5.84442034,24.7431783 5.89342034,24.6987645 C6.04642034,24.7209714 6.20142034,24.6427645 6.25542034,24.4960059 L6.67942034,23.1384886 C6.76842034,22.709799 6.30642034,22.3168335 5.99342034,23.2041438 M13.2684203,14.5965576 C13.1384203,14.5019369 13.0074203,14.4063507 12.8724203,14.3184886 C12.5314203,14.0973852 12.1754203,13.9004197 11.8064203,13.7169714 C11.8244203,13.6947645 11.8394203,13.6706266 11.8574203,13.6484197 L12.2654203,13.1212472 L12.3084203,13.0642817 C12.3364203,13.0285576 12.3914203,12.969661 12.4374203,12.9725576 C12.4824203,12.9764197 12.5134203,13.0430404 12.5354203,13.0826266 C12.6054203,13.2129714 12.6804203,13.3394541 12.7544203,13.4649714 C12.9124203,13.7295231 13.0714203,13.9921438 13.2424203,14.2431783 C13.2734203,14.285661 13.3044203,14.3281438 13.3354203,14.3706266 C13.3134203,14.4469024 13.2904203,14.5212472 13.2684203,14.5965576 M19.4314203,14.285661 C19.1714203,13.9149024 18.9584203,13.5566955 18.7664203,13.2091093 C18.7544203,13.1859369 18.7284203,13.1724197 18.7014203,13.1753162 C18.6734203,13.1772472 18.6514203,13.1946266 18.6434203,13.21973 C18.6044203,13.3404197 18.5754203,13.445661 18.5584203,13.5209714 C18.3094203,13.4572472 17.6024203,13.3568335 16.9104203,13.5286955 C16.8474203,13.5451093 16.7674203,13.585661 16.7444203,13.6455231 C16.7224203,13.7044197 16.7614203,13.7739369 16.7984203,13.8251093 C16.9404203,14.0269024 17.0484203,14.229661 17.1624203,14.4391783 C17.6434203,15.3303507 17.8934203,16.0168335 17.8534203,16.04773 C17.8034203,16.0892472 17.5854203,15.79573 17.5014203,15.6808335 C17.3454203,15.4742128 17.1884203,15.2675921 17.0294203,15.0638679 C16.6654203,14.6149024 16.2554203,14.1630404 15.8204203,13.7720059 C15.3804203,13.3722817 14.9194203,13.0063507 14.3774203,12.7022128 C14.2674203,12.6423507 14.1284203,12.6423507 14.0174203,12.7128335 C14.0054203,12.7205576 13.9994203,12.7321438 13.9884203,12.7408335 C13.8904203,12.7746266 13.8074203,12.8431783 13.7764203,12.9455231 C13.7514203,13.0198679 13.7304203,13.0922817 13.7074203,13.165661 C13.6044203,13.0575231 13.5014203,12.9464886 13.3964203,12.8412472 C13.1814203,12.63173 12.9504203,12.3855231 12.7614203,12.2735231 C12.6684203,12.2194541 12.5964203,12.2358679 12.5964203,12.2358679 L12.5924203,12.2339369 C12.5034203,12.18373 12.4294203,12.2445576 12.3524203,12.3246955 C12.2274203,12.4560059 12.0874203,12.629799 11.9444203,12.7987645 L11.5204203,13.3104886 C11.4644203,13.3800059 11.4054203,13.445661 11.3454203,13.5113162 C11.2584203,13.4765576 11.1814203,13.4311783 11.0914203,13.3983507 C11.0244203,13.3742128 10.9524203,13.3790404 10.8824203,13.3973852 C10.7604203,13.3703507 10.6294203,13.4070404 10.5454203,13.5064886 C10.1974203,13.9226266 9.84842034,14.33973 9.49942034,14.7529714 C9.04442034,14.8678679 8.57642034,15.0406955 8.09942034,15.2975231 C5.34042034,16.7873162 3.74942034,18.6604197 4.04342034,20.9013852 C4.06042034,21.033661 4.08542034,21.1485576 4.11542034,21.2586266 L3.80742034,21.6670404 L2.81442034,22.877799 C2.55942034,23.241799 2.25042034,23.5710404 2.06942034,23.9862128 C2.05142034,24.0248335 2.05542034,24.0682817 2.05442034,24.109799 C1.86942034,24.277799 1.66142034,24.4158679 1.41942034,24.4921438 C1.25142034,24.5471783 1.07242034,24.5790404 0.89242034,24.5925576 C0.71542034,24.6060748 0.51842034,24.5993162 0.36542034,24.5722817 L0.35542034,24.5693852 C0.34842034,24.5684197 0.34042034,24.5674541 0.33342034,24.5674541 C0.16642034,24.5520059 0.0184203395,24.6678679 0.00142033952,24.8271783 C-0.0145796605,24.9864886 0.10642034,25.1303507 0.27242034,25.1467645 C0.52042034,25.1718679 0.73142034,25.1583507 0.95642034,25.1284197 C1.17642034,25.0955921 1.39542034,25.0424886 1.60442034,24.9565576 C1.89442034,24.8445576 2.15842034,24.6630404 2.37242034,24.4438679 C2.46142034,24.44773 2.55142034,24.417799 2.62142034,24.3540748 C2.95842034,24.0451093 3.35242034,23.5053852 3.61742034,23.1462128 L4.36642034,22.0387645 L5.12042034,20.9361438 L5.50742034,20.3915921 C5.64942034,20.2187645 5.72942034,20.0024886 5.95942034,19.8914541 L5.92142034,19.9349024 C6.10742034,19.8779369 6.20442034,19.7427645 6.32242034,19.6249714 L6.66642034,19.2648335 L7.34842034,18.5387645 C7.79742034,18.0492472 8.24942034,17.55973 8.67242034,17.0451093 C9.42542034,16.1375231 10.1304203,15.20773 10.8164203,14.2605576 C10.8394203,14.2286955 10.8764203,14.2093852 10.9154203,14.2064886 C10.9564203,14.2035921 10.9964203,14.2190404 11.0234203,14.2470404 C11.3634203,14.5984886 11.7174203,14.9422128 12.0774203,15.2733852 C12.3364203,15.5195921 12.6024203,15.7532472 12.8684203,15.9859369 C12.7664203,16.3364197 12.6714203,16.6888335 12.5784203,17.0412472 C12.4224203,16.9195921 12.2684203,16.7989024 12.1284203,16.6926955 C11.7164203,16.3789024 11.4054203,16.1191783 11.1434203,15.8942128 C11.1004203,15.8565576 11.0454203,15.8391783 10.9894203,15.8459369 C10.9334203,15.8507645 10.8814203,15.8787645 10.8484203,15.9222128 C9.84642034,17.221799 9.04742034,18.2394541 8.10742034,19.6182128 C7.05742034,21.1553162 6.71042034,22.2762817 7.82642034,22.1623507 C9.10142034,21.9489714 10.6584203,21.4864886 11.7334203,21.0674541 C11.6504203,21.4362817 11.5694203,21.8099369 11.4644203,22.177799 C11.3304203,22.6885576 11.1674203,23.1944886 11.0484203,23.7091093 C10.9154203,24.2198679 10.7804203,24.729661 10.7784203,25.2674541 C10.7784203,25.2906266 10.7934203,25.3099369 10.7984203,25.3321438 C10.4814203,25.7144886 9.82342034,25.8554541 9.27142034,25.8622128 L9.25542034,25.8622128 C9.24742034,25.8622128 9.24042034,25.8622128 9.23142034,25.8631783 C9.06542034,25.8786266 8.94342034,26.0215231 8.95842034,26.181799 C8.97442034,26.3420748 9.12242034,26.4608335 9.28942034,26.4444197 C9.72842034,26.4048335 10.1324203,26.3102128 10.5304203,26.1142128 C10.7244203,26.0166955 10.9134203,25.8863507 11.0644203,25.7144886 C11.0974203,25.6787645 11.1174203,25.6333852 11.1454203,25.593799 C11.2704203,25.5841438 11.3834203,25.513661 11.4364203,25.3958679 C11.6524203,24.9015231 11.7334203,24.3801438 11.8194203,23.85973 C11.9154203,23.3422128 11.9724203,22.8150404 12.0554203,22.293661 C12.1284203,21.7693852 12.2214203,21.2509024 12.3354203,20.7362817 C12.3704203,20.6155921 12.4494203,20.4688335 12.5274203,20.38773 C12.6134203,20.2728335 12.6794203,20.1521438 12.7064203,20.02373 L12.9114203,19.2580748 C13.1774203,18.2365576 13.4654203,17.2198679 13.7074203,16.1915921 C13.9034203,15.4114541 14.0874203,14.6284197 14.2614203,13.8424886 C14.2674203,13.8173852 14.2884203,13.7961438 14.3154203,13.7913162 C14.3414203,13.7864886 14.3674203,13.7961438 14.3834203,13.8183507 C14.5604203,14.0626266 14.7424203,14.3030404 14.9214203,14.5405576 L15.9214203,15.8652472 C16.7384203,16.9205576 17.9634203,18.4682817 18.2694203,18.5764197 C18.5754203,18.681661 18.8644203,18.5725576 19.4684203,18.0173852 C19.8314203,17.6842817 20.3754203,16.9823507 20.9194203,16.2659369 C20.9934203,16.1722817 21.0004203,16.105661 20.8974203,16.0120059 C20.5454203,15.6875921 19.9974203,15.093799 19.4314203,14.285661 M27.4614203,25.205661 L27.4564203,25.205661 C27.3054203,25.2346266 27.1064203,25.2355921 26.9334203,25.2095231 C26.7554203,25.1824886 26.5854203,25.1274541 26.4334203,25.0434541 C26.2994203,24.9681438 26.1874203,24.8648335 26.0894203,24.7460748 C26.0944203,24.7190404 26.1024203,24.6929714 26.0994203,24.6649714 C26.0594203,24.1764197 25.8654203,23.553661 25.7404203,23.0834541 L25.3444203,21.6824886 C25.2144203,21.2151783 24.9994203,20.7662128 25.1134203,20.2448335 C25.1794203,19.9802817 25.1264203,19.7427645 25.0564203,19.5110404 L24.8744203,18.8052472 C24.8144203,18.5715921 24.7784203,18.4151783 24.7264203,18.2230404 C24.6734203,18.0309024 24.6514203,17.9758679 24.5164203,17.837799 C24.2964203,17.6166955 24.0764203,17.4042817 23.7414203,17.1406955 C23.2224203,16.7332472 23.4354203,17.41973 23.5454203,17.9835921 C23.6164203,18.34373 23.7124203,18.6971093 23.7954203,19.0533852 L23.9634203,19.7611093 C24.0094203,19.9995921 24.0734203,20.2332472 24.2544203,20.4389024 C24.6034203,20.8579369 24.6194203,21.3503507 24.7224203,21.8253852 L25.0234203,23.2485576 C25.1314203,23.721661 25.2544203,24.3627645 25.4474203,24.8155921 C25.5004203,24.9411093 25.6364203,25.0280059 25.7874203,25.0164197 C25.7954203,25.0164197 25.8034203,25.0106266 25.8114203,25.009661 C25.9124203,25.1564197 26.0274203,25.2925576 26.1774203,25.4006955 C26.3694203,25.5426266 26.5894203,25.6430404 26.8184203,25.7048335 C27.0524203,25.765661 27.2734203,25.7984886 27.5374203,25.7820748 C27.5484203,25.7801438 27.5644203,25.7801438 27.5784203,25.7772472 C27.7424203,25.7473162 27.8474203,25.593799 27.8164203,25.4354541 C27.7854203,25.2771093 27.6254203,25.1728335 27.4614203,25.205661 M15.3994203,18.8149024 C14.9864203,18.6604197 14.5814203,18.4441438 14.1874203,18.1998679 C14.1364203,18.1670404 14.0664203,18.1332472 14.0074203,18.1515921 C13.9504203,18.1709024 13.9104203,18.2433162 13.8894203,18.2993162 C13.8404203,18.4325576 13.7984203,18.5851093 13.7654203,18.761799 C13.6004203,19.7002817 13.7094203,20.1328335 14.1934203,19.4135231 C14.2324203,19.3430404 14.2704203,19.2773852 14.3114203,19.1962817 C14.4194203,18.9790404 14.6004203,18.8680059 14.8574203,18.87573 C15.0654203,18.8824886 15.2394203,18.8815231 15.3884203,18.877661 C15.4044203,18.87573 15.4164203,18.8670404 15.4194203,18.8515921 C15.4234203,18.8351783 15.4144203,18.8206955 15.3994203,18.8149024 M15.0914203,16.0641438 C14.5974203,15.6393162 14.3244203,15.8285576 14.1964203,16.2475921 C14.0734203,16.6540748 14.1194203,16.9842817 14.4184203,17.2768335 C16.0464203,18.5773852 16.6864203,18.9433162 16.9954203,18.9259369 C17.3404203,18.9066266 17.4124203,18.6005576 17.3004203,18.453799 C16.6554203,17.6041438 15.3094203,16.2582128 15.0914203,16.0641438" id="Fill-1"></path>
            </g>
        </g>
    </g>
</svg>