<?xml version="1.0" encoding="UTF-8"?>
<svg width="14px" height="14px" viewBox="0 0 14 14" version="1.1" xmlns="http://www.w3.org/2000/svg" xmlns:xlink="http://www.w3.org/1999/xlink">
    <!-- Generator: Sketch 46.2 (44496) - http://www.bohemiancoding.com/sketch -->
    <title>Shape</title>
    <desc>Created with Sketch.</desc>
    <defs></defs>
    <g id="Symbols" stroke="none" stroke-width="1" fill="none" fill-rule="evenodd">
        <g id="Sidebar0" transform="translate(-40.000000, -751.000000)" fill-rule="nonzero" fill="#FFFFFF">
            <g id="Sidebar" transform="translate(0.000000, 20.000000)">
                <g id="Button" transform="translate(20.000000, 716.000000)">
                    <path d="M34,28.9999453 L34,27.5310205 C34,26.8174904 33.538579,26.211698 32.8981298,25.9972069 L32.8981298,25.9972069 C32.8477055,25.9801166 29.5694399,25.1427427 29.100335,24.2113035 C28.886305,23.7857394 29.0973544,23.2406247 29.3109742,22.8646364 C29.4087602,22.7330268 29.5044406,22.5937607 29.5963748,22.4476312 L29.5963748,22.4467835 L29.5963748,22.4467835 C30.1518355,21.5581112 30.5756844,20.389184 30.6187802,18.9442678 C30.6837248,16.7705085 29.0016466,15.0051134 27.0047444,15 L27.0047444,15 L27.000041,15 L26.9953103,15 L26.9953103,15 C24.998791,15.0051134 23.3167401,16.7705085 23.3820948,18.9443225 C23.4252454,20.3892661 23.848684,21.5581932 24.4040627,22.4468382 L24.4040627,22.4468382 C24.4040627,22.4468382 24.4045276,22.4468382 24.4045276,22.4476859 C24.4959695,22.5938154 24.5916773,22.7331088 24.6894907,22.8646911 C24.9031378,23.2406794 25.1141599,23.7858214 24.9001299,24.2113582 C24.4314078,25.1427427 21.1527321,25.9801713 21.1023077,25.9972616 L21.1023077,25.9972616 C20.4618858,26.2118074 20,26.8175451 20,27.5311299 L20,29 L34,28.9999453 L34,28.9999453 Z" id="Shape"></path>
                </g>
            </g>
        </g>
    </g>
</svg>